dump.vcd
$date
	Sat Sep 27 03:54:38 2025
$end
$version
	QuestaSim Version 2024.3_1
$end
$timescale
	1ns
$end

$scope module top $end
$var reg 1 ! clock $end

$scope module dut1 $end
$var wire 1 " addr [31] $end
$var wire 1 # addr [30] $end
$var wire 1 $ addr [29] $end
$var wire 1 % addr [28] $end
$var wire 1 & addr [27] $end
$var wire 1 ' addr [26] $end
$var wire 1 ( addr [25] $end
$var wire 1 ) addr [24] $end
$var wire 1 * addr [23] $end
$var wire 1 + addr [22] $end
$var wire 1 , addr [21] $end
$var wire 1 - addr [20] $end
$var wire 1 . addr [19] $end
$var wire 1 / addr [18] $end
$var wire 1 0 addr [17] $end
$var wire 1 1 addr [16] $end
$var wire 1 2 addr [15] $end
$var wire 1 3 addr [14] $end
$var wire 1 4 addr [13] $end
$var wire 1 5 addr [12] $end
$var wire 1 6 addr [11] $end
$var wire 1 7 addr [10] $end
$var wire 1 8 addr [9] $end
$var wire 1 9 addr [8] $end
$var wire 1 : addr [7] $end
$var wire 1 ; addr [6] $end
$var wire 1 < addr [5] $end
$var wire 1 = addr [4] $end
$var wire 1 > addr [3] $end
$var wire 1 ? addr [2] $end
$var wire 1 @ addr [1] $end
$var wire 1 A addr [0] $end
$var wire 1 B clock $end
$var wire 1 C cmd $end
$var wire 1 D en $end
$var wire 32 E icr [31:0] $end
$var wire 32 F isr [31:0] $end
$var wire 1 G reset $end
$var wire 32 H rqr [31:0] $end
$var wire 1 I wdata [31] $end
$var wire 1 J wdata [30] $end
$var wire 1 K wdata [29] $end
$var wire 1 L wdata [28] $end
$var wire 1 M wdata [27] $end
$var wire 1 N wdata [26] $end
$var wire 1 O wdata [25] $end
$var wire 1 P wdata [24] $end
$var wire 1 Q wdata [23] $end
$var wire 1 R wdata [22] $end
$var wire 1 S wdata [21] $end
$var wire 1 T wdata [20] $end
$var wire 1 U wdata [19] $end
$var wire 1 V wdata [18] $end
$var wire 1 W wdata [17] $end
$var wire 1 X wdata [16] $end
$var wire 1 Y wdata [15] $end
$var wire 1 Z wdata [14] $end
$var wire 1 [ wdata [13] $end
$var wire 1 \ wdata [12] $end
$var wire 1 ] wdata [11] $end
$var wire 1 ^ wdata [10] $end
$var wire 1 _ wdata [9] $end
$var wire 1 ` wdata [8] $end
$var wire 1 a wdata [7] $end
$var wire 1 b wdata [6] $end
$var wire 1 c wdata [5] $end
$var wire 1 d wdata [4] $end
$var wire 1 e wdata [3] $end
$var wire 1 f wdata [2] $end
$var wire 1 g wdata [1] $end
$var wire 1 h wdata [0] $end
$var reg 25 i ICR_CONTENT1 [24:0] $end
$var reg 6 j ICR_CONTENT2 [5:0] $end
$var reg 25 k ISR_CONTENT1 [24:0] $end
$var reg 5 l ISR_CONTENT2 [4:0] $end
$var reg 28 m RQR_CONTENT1 [27:0] $end
$var reg 3 n RQR_CONTENT2 [2:0] $end
$var reg 1 o RXFRQ $end
$var reg 1 p RXNE $end
$var reg 1 q TC $end
$var reg 1 r TCCF $end
$var reg 1 s clear_rxne $end
$var reg 1 t clear_tc $end
$var reg 32 u cr1 [31:0] $end
$var reg 1 v cr1_en $end
$var reg 32 w cr2 [31:0] $end
$var reg 1 x cr2_en $end
$var reg 1 y icr_en $end
$var reg 1 z isr_en $end
$var reg 32 { rdata [31:0] $end
$var reg 32 | rdr [31:0] $end
$var reg 1 } rdr_en $end
$var reg 1 ~ rqr_en $end
$var reg 32 !! tdr [31:0] $end
$var reg 1 "! tdr_en $end
$var reg 1 #! usart1_en $end
$upscope $end

$scope module dut_if1 $end
$var reg 32 $! addr [31:0] $end
$var reg 1 %! cmd $end
$var reg 1 &! en $end
$var reg 32 '! rdata [31:0] $end
$var reg 1 (! reset $end
$var reg 32 )! wdata [31:0] $end
$var reg 1 *! clock $end

$scope begin cb $end
$var event 1 +! cb_event $end
$var reg 32 ,! addr [31:0] $end
$var reg 1 -! cmd $end
$var reg 32 .! wdata [31:0] $end
$upscope $end
$upscope $end
$upscope $end
$enddefinitions $end
#0
$dumpvars
xh
xg
xf
xe
xd
xc
xb
xa
x`
x_
x^
x]
x\
x[
xZ
xY
xX
xW
xV
xU
xT
xS
xR
xQ
xP
xO
xN
xM
xL
xK
xJ
xI
xA
x@
x?
x>
x=
x<
x;
x:
x9
x8
x7
x6
x5
x4
x3
x2
x1
x0
x/
x.
x-
x,
x+
x*
x)
x(
x'
x&
x%
x$
x#
x"
xC
xD
0B
1G
b0 F
b0 H
b0 E
0!
b0 i
b0 j
b0 k
b0 l
b0 m
b0 n
0o
0p
0q
0r
xs
xt
b0 u
xv
b0 w
xx
xy
xz
bx {
b0 |
x}
x~
b0 !!
x"!
x#!
bx $!
x%!
x&!
bx '!
1(!
bx )!
0*!
1+!
bx ,!
x-!
bx .!
$end
#5
1!
1*!
1B
1+!
#10
0!
0*!
0B
#15
1!
1*!
1B
1+!
#20
0!
0*!
0B
#25
1!
1*!
1B
1+!
#30
0!
0*!
0B
#35
1!
1*!
1B
0(!
0G
1+!
#40
0!
0*!
0B
#45
1!
1*!
1B
1+!
#50
0!
0*!
0B
#55
1!
1*!
1B
1-!
b1000000000000000100110000100100 ,!
b10101010 .!
1+!
1%!
b1000000000000000100110000100100 $!
b10101010 )!
1C
0h
1g
0f
1e
0d
1c
0b
1a
0`
0_
0^
0]
0\
0[
0Z
0Y
0X
0W
0V
0U
0T
0S
0R
0Q
0P
0O
0N
0M
0L
0K
0J
0I
0A
0@
1?
0>
0=
1<
0;
0:
09
08
17
16
05
04
13
02
01
00
0/
0.
0-
0,
0+
0*
0)
0(
0'
0&
0%
0$
1#
0"
1#!
0v
0x
0~
0z
0y
1}
0"!
0s
0t
#60
0!
0*!
0B
#65
1!
1*!
1B
b10101010 |
1&!
1D
1+!
#70
0!
0*!
0B
#75
1!
1*!
1B
0&!
0D
1+!
#80
0!
0*!
0B
#85
1!
1*!
1B
1-!
b1000000000000000100110000011100 ,!
b1100000 .!
1+!
b1000000000000000100110000011100 $!
b1100000 )!
0g
0e
1b
0a
1>
1=
0<
1z
0}
#90
0!
0*!
0B
#95
1!
1*!
1B
1q
1p
1&!
b1100000 F
1D
1+!
#100
0!
0*!
0B
#105
1!
1*!
1B
0&!
0D
1+!
#110
0!
0*!
0B
#115
1!
1*!
1B
1+!
#120
0!
0*!
0B
#125
1!
1*!
1B
1+!
#130
0!
0*!
0B
#135
1!
1*!
1B
1+!
#140
0!
0*!
0B
#145
1!
1*!
1B
0-!
b1000000000000000100110000100100 ,!
1+!
0%!
b1000000000000000100110000100100 $!
0C
0>
0=
1<
0z
1}
1s
#150
0!
0*!
0B
#155
1!
1*!
1B
0p
1&!
b1000000 F
1D
b10101010 {
b10101010 '!
1+!
#160
0!
0*!
0B
#165
1!
1*!
1B
0&!
0D
1+!
#170
0!
0*!
0B
#175
1!
1*!
1B
1+!
#180
0!
0*!
0B
#185
1!
1*!
1B
1+!
#190
0!
0*!
0B
#195
1!
1*!
1B
1+!
#200
0!
0*!
0B
#205
1!
1*!
1B
1-!
b1000000000000000100110000011100 ,!
b1100000 .!
1+!
1%!
b1000000000000000100110000011100 $!
1C
1>
1=
0<
1z
0}
0s
#210
0!
0*!
0B
#215
1!
1*!
1B
1p
1&!
b1100000 F
1D
1+!
#220
0!
0*!
0B
#225
1!
1*!
1B
0&!
0D
1+!
#230
0!
0*!
0B
#235
1!
1*!
1B
1+!
#240
0!
0*!
0B
#245
1!
1*!
1B
1+!
#250
0!
0*!
0B
#255
1!
1*!
1B
1+!
#260
0!
0*!
0B
#265
1!
1*!
1B
1-!
b1000000000000000100110000011000 ,!
b1000 .!
1+!
b1000000000000000100110000011000 $!
b1000 )!
1e
0c
0b
0?
1~
0z
1s
#270
0!
0*!
0B
#275
1!
1*!
1B
0p
1o
1&!
b1000 H
b1000000 F
1D
1+!
#280
0!
0*!
0B
#285
1!
1*!
1B
0&!
0D
1+!
#290
0!
0*!
0B
#295
1!
1*!
1B
1+!
#300
0!
0*!
0B
#305
1!
1*!
1B
1+!
#310
0!
0*!
0B
#315
1!
1*!
1B
1+!
#320
0!
0*!
0B
#325
1!
1*!
1B
1-!
b1000000000000000100110000011100 ,!
b1100000 .!
1+!
b1000000000000000100110000011100 $!
b1100000 )!
0e
1c
1b
1?
0~
1z
0s
#330
0!
0*!
0B
#335
1!
1*!
1B
1p
1&!
b1100000 F
1D
1+!
#340
0!
0*!
0B
#345
1!
1*!
1B
0&!
0D
1+!
#350
0!
0*!
0B
#355
1!
1*!
1B
1+!
#360
0!
0*!
0B
#365
1!
1*!
1B
1+!
#370
0!
0*!
0B
#375
1!
1*!
1B
1+!
#380
0!
0*!
0B
#385
1!
1*!
1B
1-!
b1000000000000000100110000101000 ,!
b10101010 .!
1+!
b1000000000000000100110000101000 $!
b10101010 )!
1g
1e
0b
1a
0?
0=
1<
0z
1"!
1t
#390
0!
0*!
0B
#395
1!
1*!
1B
0q
1&!
b100000 F
1D
1+!
#400
0!
0*!
0B
#405
1!
1*!
1B
0&!
0D
1+!
#410
0!
0*!
0B
#415
1!
1*!
1B
1+!
#420
0!
0*!
0B
#425
1!
1*!
1B
1+!
#430
0!
0*!
0B
#435
1!
1*!
1B
1+!
#440
0!
0*!
0B
#445
1!
1*!
1B
1-!
b1000000000000000100110000011100 ,!
b1100000 .!
1+!
b1000000000000000100110000011100 $!
b1100000 )!
0g
0e
1b
0a
1?
1=
0<
1z
0"!
0t
#450
0!
0*!
0B
#455
1!
1*!
1B
1q
1&!
b1100000 F
1D
1+!
#460
0!
0*!
0B
#465
1!
1*!
1B
0&!
0D
1+!
#470
0!
0*!
0B
#475
1!
1*!
1B
1+!
#480
0!
0*!
0B
#485
1!
1*!
1B
1+!
#490
0!
0*!
0B
#495
1!
1*!
1B
1+!
#500
0!
0*!
0B
#505
1!
1*!
1B
1-!
b1000000000000000100110000100000 ,!
b1000000 .!
1+!
b1000000000000000100110000100000 $!
b1000000 )!
0c
0?
0>
0=
1<
0z
1y
1t
#510
0!
0*!
0B
#515
1!
1*!
1B
0q
1r
1&!
b1000000 E
b100000 F
1D
1+!
#520
0!
0*!
0B
#525
1!
1*!
1B
0&!
0D
1+!
#530
0!
0*!
0B
#535
1!
1*!
1B
1+!
